{
	"info": {
		"_postman_id": "12d5f078-b963-42d9-9e99-f353b576aa28",
		"name": "Financiero",
		"schema": "https://schema.getpostman.com/json/collection/v2.1.0/collection.json"
	},
	"item": [
		{
			"name": "MÓDULO FINANCIERO",
			"item": [
				{
					"name": "Financiero",
					"item": [
						{
							"name": "Módulo caja",
							"item": [
								{
									"name": "Cajero",
									"item": [
										{
											"name": "Obtener cajero",
											"request": {
												"method": "GET",
												"header": [],
												"url": {
													"raw": "{{ruta}}/cashier",
													"host": [
														"{{ruta}}"
													],
													"path": [
														"cashier"
													]
												}
											},
											"response": []
										},
										{
											"name": "Actualizar cajero",
											"request": {
												"method": "PUT",
												"header": [],
												"body": {
													"mode": "raw",
													"raw": "    {\r\n        \"id\": 2,\r\n        \"idCampus\": 0,\r\n        \"code\": \"CO00000001\",\r\n        \"documentType\": {\r\n            \"id\": 2,\r\n            \"idCampus\": 1,\r\n            \"abbreviation\": \"NIT\",\r\n            \"name\": \"NIT\",\r\n            \"status\": \"A\"\r\n        },\r\n        \"numIdent\": \"2222222222222222\",\r\n        \"firstName\": \"Cajero\",\r\n        \"secondName\": \"Inactivo\",\r\n        \"firstLastName\": \"Sin\",\r\n        \"secondLastName\": \"Asociaciones\",\r\n        \"fullName\": \"Cajero Inactivo Sin Asociaciones\",\r\n        \"email\": \"ejemplo2@correo.com\",\r\n        \"locked\": {\r\n            \"date\": null,\r\n            \"yesOrNot\": \"N\",\r\n            \"message\": null\r\n        },\r\n        \"status\": \"I\"\r\n    }",
													"options": {
														"raw": {
															"language": "json"
														}
													}
												},
												"url": {
													"raw": "{{ruta}}/cashier",
													"host": [
														"{{ruta}}"
													],
													"path": [
														"cashier"
													]
												}
											},
											"response": []
										}
									]
								},
								{
									"name": "Registrar caja",
									"item": [
										{
											"name": "Obtener Caja",
											"protocolProfileBehavior": {
												"disableBodyPruning": true
											},
											"request": {
												"method": "GET",
												"header": [],
												"body": {
													"mode": "raw",
													"raw": "",
													"options": {
														"raw": {
															"language": "json"
														}
													}
												},
												"url": {
													"raw": "{{ruta}}/boxes",
													"host": [
														"{{ruta}}"
													],
													"path": [
														"boxes"
													]
												}
											},
											"response": []
										},
										{
											"name": "Guardar Caja",
											"request": {
												"method": "POST",
												"header": [],
												"body": {
													"mode": "raw",
													"raw": "{\r\n    \"id\": 1,\r\n    \"idCampus\": 1,\r\n    \"code\": \"001\",\r\n    \"name\": \"001\",\r\n    \"team\": null,\r\n    \"location\": \"001\",\r\n    \"account\": \"CAJA CON ATRIBUTOS\",\r\n    \"base\": {\r\n        \"id\": 3,\r\n        \"code\": \"TEST\",\r\n        \"name\": \"TEST\",\r\n        \"fatherBase\": null,\r\n        \"idCampus\": 1,\r\n        \"status\": \"A\",\r\n        \"locked\": {\r\n            \"date\": null,\r\n            \"yesOrNot\": \"N\",\r\n            \"message\": null\r\n        },\r\n        \"externalReference\": null,\r\n        \"isFather\": false\r\n    },\r\n    \"costCenter\": null,\r\n    \"source\": {\r\n        \"id\": 6,\r\n        \"code\": \"TESTFATHER\",\r\n        \"name\": \"TESTFATHER\",\r\n        \"fatherSource\": {\r\n            \"id\": 3,\r\n            \"code\": \"234\",\r\n            \"name\": \"Qwerqwrqwr\",\r\n            \"fatherSource\": null,\r\n            \"idCampus\": 1,\r\n            \"status\": \"A\",\r\n            \"locked\": {\r\n                \"date\": null,\r\n                \"yesOrNot\": \"N\",\r\n                \"message\": null\r\n            },\r\n            \"externalReference\": \"435\",\r\n            \"isFather\": false\r\n        },\r\n        \"idCampus\": 1,\r\n        \"status\": \"A\",\r\n        \"locked\": {\r\n            \"date\": null,\r\n            \"yesOrNot\": \"N\",\r\n            \"message\": null\r\n        },\r\n        \"externalReference\": null,\r\n        \"isFather\": false\r\n    },\r\n    \"accountingDocument\": {\r\n        \"id\": 1,\r\n        \"idCampus\": 0,\r\n        \"code\": \"001\",\r\n        \"name\": \"COMPROBANTE DE EGRESO\",\r\n        \"description\": \"Información ingresada por base de datos\",\r\n        \"process\": \"TESORERIA\",\r\n        \"functionality\": \"LIQUIDAR\",\r\n        \"status\": \"A\"\r\n    },\r\n    \"status\": \"B\",\r\n    \"statusBoxes\": \"C\",\r\n    \"locked\": {\r\n        \"date\": null,\r\n        \"message\": null,\r\n        \"yesOrNot\": \"N\"\r\n    },\r\n    \"typeAssignBase\": \"F\",\r\n    \"typeAssignSource\": \"F\",\r\n    \"typeAssignCostCenter\": \"C\",\r\n    \"criterionCostCenter\": \"R\",\r\n    \"criterionSource\": null,\r\n    \"criterionBase\": null\r\n}",
													"options": {
														"raw": {
															"language": "json"
														}
													}
												},
												"url": {
													"raw": "{{ruta}}/boxes",
													"host": [
														"{{ruta}}"
													],
													"path": [
														"boxes"
													]
												}
											},
											"response": []
										}
									]
								},
								{
									"name": "Apertura de caja",
									"item": []
								},
								{
									"name": "Arqueo de caja",
									"item": []
								},
								{
									"name": "Arqueo y cierre de caja",
									"item": []
								},
								{
									"name": "Recaudo",
									"item": []
								}
							]
						},
						{
							"name": "Configuraciones",
							"item": [
								{
									"name": "Cuentas bancarias",
									"item": [
										{
											"name": "Obtener Cuenta Bancaria",
											"request": {
												"method": "GET",
												"header": [],
												"url": {
													"raw": "{{ruta}}/bank",
													"host": [
														"{{ruta}}"
													],
													"path": [
														"bank"
													]
												}
											},
											"response": []
										},
										{
											"name": "Actualizar Cuenta Bancaria",
											"request": {
												"method": "PUT",
												"header": [],
												"body": {
													"mode": "raw",
													"raw": "    {\r\n        \"id\": 9,\r\n        \"idCampus\": 1,\r\n        \"code\": \"ZB0004\",\r\n        \"name\": \"Carlos Vergara\",\r\n        \"nit\": \"456327865-8\",\r\n        \"initials\": \"CV\",\r\n        \"numAccount\": \"890007654\",\r\n        \"accountType\": \"A\",\r\n        \"address\": \"La plazuela \",\r\n        \"municipality\": {\r\n            \"id\": 650,\r\n            \"code\": \"44378\",\r\n            \"name\": \"Hatonuevo\",\r\n            \"department\": {\r\n                \"id\": 14,\r\n                \"code\": \"44\",\r\n                \"name\": \"La Guajira\",\r\n                \"country\": {\r\n                    \"id\": 1,\r\n                    \"code\": \"COL\",\r\n                    \"name\": \"Colombia\",\r\n                    \"status\": \"A\"\r\n                },\r\n                \"status\": \"A\"\r\n            },\r\n            \"status\": \"A\"\r\n        },\r\n        \"phones\": \"3045637145\",\r\n        \"legalRepresentative\": \"Pedro Castro\",\r\n        \"observations\": \"\",\r\n        \"account\": {\r\n            \"id\": 15,\r\n            \"code\": \"11100602\",\r\n            \"name\": \"DAVIVIENDA 056600087698\",\r\n            \"accountType\": \"A\",\r\n            \"fatherAccount\": {\r\n                \"id\": 13,\r\n                \"code\": \"111006\",\r\n                \"name\": \"BANCOS UNICOLOMBO PENDIENTE\",\r\n                \"accountType\": \"A\",\r\n                \"fatherAccount\": {\r\n                    \"id\": 4,\r\n                    \"code\": \"1110\",\r\n                    \"name\": \"BANCOS\",\r\n                    \"accountType\": \"A\",\r\n                    \"fatherAccount\": null,\r\n                    \"idCampus\": 1,\r\n                    \"attributeManagement\": {\r\n                        \"id\": 8,\r\n                        \"idCampus\": 1,\r\n                        \"code\": \"008\",\r\n                        \"name\": \"Solo tercero\",\r\n                        \"description\": null,\r\n                        \"third\": \"S\",\r\n                        \"base\": \"N\",\r\n                        \"costCenter\": \"N\",\r\n                        \"source\": \"N\",\r\n                        \"status\": \"A\",\r\n                        \"locked\": null\r\n                    },\r\n                    \"status\": \"A\",\r\n                    \"locked\": null,\r\n                    \"externalReference\": null\r\n                },\r\n                \"idCampus\": 1,\r\n                \"attributeManagement\": {\r\n                    \"id\": 8,\r\n                    \"idCampus\": 1,\r\n                    \"code\": \"008\",\r\n                    \"name\": \"Solo tercero\",\r\n                    \"description\": null,\r\n                    \"third\": \"S\",\r\n                    \"base\": \"N\",\r\n                    \"costCenter\": \"N\",\r\n                    \"source\": \"N\",\r\n                    \"status\": \"A\",\r\n                    \"locked\": null\r\n                },\r\n                \"status\": \"A\",\r\n                \"locked\": null,\r\n                \"externalReference\": null\r\n            },\r\n            \"idCampus\": 1,\r\n            \"attributeManagement\": {\r\n                \"id\": 8,\r\n                \"idCampus\": 1,\r\n                \"code\": \"008\",\r\n                \"name\": \"Solo tercero\",\r\n                \"description\": null,\r\n                \"third\": \"S\",\r\n                \"base\": \"N\",\r\n                \"costCenter\": \"N\",\r\n                \"source\": \"N\",\r\n                \"status\": \"A\",\r\n                \"locked\": null\r\n            },\r\n            \"status\": \"A\",\r\n            \"locked\": null,\r\n            \"externalReference\": null\r\n        },\r\n        \"base\": null,\r\n        \"costCenter\": null,\r\n        \"source\": null,\r\n        \"assignmentType\": null,\r\n        \"criterion\": null,\r\n        \"processByDocumentType\": {\r\n            \"id\": 20,\r\n            \"idCampus\": 0,\r\n            \"status\": \"A\",\r\n            \"code\": \"PPTD00020\",\r\n            \"name\": \"TESORERÍA l Notas bancarias\",\r\n            \"consecutive\": 0,\r\n            \"accountingDocument\": {\r\n                \"id\": 16,\r\n                \"idCampus\": 0,\r\n                \"code\": \"018\",\r\n                \"name\": \"NOTAS BANCARIAS\",\r\n                \"description\": \"Información ingresada por base de datos\",\r\n                \"process\": \"TESORERIA\",\r\n                \"functionality\": \"LIQUIDAR\",\r\n                \"status\": \"A\"\r\n            },\r\n            \"locked\": {\r\n                \"date\": null,\r\n                \"yesOrNot\": \"N\",\r\n                \"message\": null\r\n            }\r\n        },\r\n        \"status\": \"I\",\r\n        \"applyAso\": \"S\",\r\n        \"locked\": {\r\n            \"date\": null,\r\n            \"yesOrNot\": \"N\",\r\n            \"message\": null\r\n        },\r\n        \"financeThird\": {\r\n            \"id\": 4,\r\n            \"idCampus\": 1,\r\n            \"status\": \"A\",\r\n            \"generalInformation\": {\r\n                \"id\": 6,\r\n                \"idCampus\": 1,\r\n                \"nature\": \"J\",\r\n                \"national\": \"N\",\r\n                \"documentType\": {\r\n                    \"id\": 2,\r\n                    \"idCampus\": 1,\r\n                    \"abbreviation\": \"NIT\",\r\n                    \"name\": \"NIT\",\r\n                    \"status\": \"A\"\r\n                },\r\n                \"numberId\": \"456327865\",\r\n                \"numberCheck\": \"8\",\r\n                \"firstName\": null,\r\n                \"secondName\": null,\r\n                \"firstLastName\": null,\r\n                \"businessName\": \"ECOAMIGABLE SAS\",\r\n                \"tradeName\": \"ECOAMIGABLE SAS\",\r\n                \"phone\": \"3045672381\",\r\n                \"email\": \"ecoamigable@gmail.com\",\r\n                \"activityEconomic\": {\r\n                    \"id\": 5,\r\n                    \"idCampus\": 0,\r\n                    \"code\": \"115\",\r\n                    \"name\": \"Cultivo de plantas textiles\",\r\n                    \"status\": \"A\"\r\n                },\r\n                \"society\": null,\r\n                \"fullName\": \"ECOAMIGABLE SAS\",\r\n                \"status\": \"A\",\r\n                \"secondLastName\": null,\r\n                \"legalName\": \"Pedro Castro\",\r\n                \"legalDocumentId\": \"132413125\"\r\n            },\r\n            \"tributaryInformation\": {\r\n                \"id\": 2,\r\n                \"idCampus\": 1,\r\n                \"status\": \"A\",\r\n                \"fiscalCategory\": {\r\n                    \"id\": 3,\r\n                    \"idCampus\": 0,\r\n                    \"code\": \"003\",\r\n                    \"name\": \"GRAN CONTRIBUYENTE\",\r\n                    \"codeReference\": \"4\",\r\n                    \"description\": null,\r\n                    \"status\": \"A\"\r\n                },\r\n                \"resolutionNumber\": \"345689\",\r\n                \"resolutionDate\": \"2020-10-15\",\r\n                \"segment\": \"ventas \",\r\n                \"country\": {\r\n                    \"id\": 1,\r\n                    \"code\": \"COL\",\r\n                    \"name\": \"Colombia\",\r\n                    \"status\": \"A\"\r\n                },\r\n                \"politicalDivision\": null,\r\n                \"fiscalResponsibility\": {\r\n                    \"id\": 35,\r\n                    \"idCampus\": 0,\r\n                    \"code\": \"A-04\",\r\n                    \"name\": \"Comercializadora internacional (C.I.)\",\r\n                    \"codeReference\": \"A-04\",\r\n                    \"status\": \"A\"\r\n                },\r\n                \"postalCode\": \"140001\"\r\n            },\r\n            \"locationData\": {\r\n                \"id\": 4,\r\n                \"idCampus\": 1,\r\n                \"status\": \"A\",\r\n                \"address\": \"La plazuela \",\r\n                \"location\": {\r\n                    \"id\": 650,\r\n                    \"code\": \"44378\",\r\n                    \"name\": \"Hatonuevo\",\r\n                    \"department\": {\r\n                        \"id\": 14,\r\n                        \"code\": \"44\",\r\n                        \"name\": \"La Guajira\",\r\n                        \"country\": {\r\n                            \"id\": 1,\r\n                            \"code\": \"COL\",\r\n                            \"name\": \"Colombia\",\r\n                            \"status\": \"A\"\r\n                        },\r\n                        \"status\": \"A\"\r\n                    },\r\n                    \"status\": \"A\"\r\n                },\r\n                \"telephone\": \"3045637145\",\r\n                \"webPage\": \"ecoamigable.com\",\r\n                \"email\": \"ecoamigable@gmail.com\"\r\n            },\r\n            \"contactData\": {\r\n                \"id\": 2,\r\n                \"idCampus\": 1,\r\n                \"status\": \"A\",\r\n                \"fullName\": \"Pedro Castro\",\r\n                \"email\": \"ecoamigable@gmail.com\",\r\n                \"phone\": \"3045067834\",\r\n                \"telephone\": null,\r\n                \"address\": \"La Plazuela\"\r\n            },\r\n            \"files\": [],\r\n            \"inactivationReason\": null,\r\n            \"inactivationComment\": null\r\n        },\r\n        \"applyPayment\": \"S\",\r\n        \"applyTransfer\": \"S\",\r\n        \"bankForCrossing\": {\r\n            \"id\": 1,\r\n            \"idCampus\": 1,\r\n            \"code\": \"23\",\r\n            \"name\": \"BANCO DE OCCIDENTE\",\r\n            \"status\": \"A\"\r\n        },\r\n        \"assignmentSourceType\": null,\r\n        \"assignmentCostCenterType\": null,\r\n        \"sourceCriterion\": null,\r\n        \"costCenterCriterion\": null,\r\n        \"processByDocumentTypeAsobancaria\": {\r\n            \"id\": 13,\r\n            \"idCampus\": 0,\r\n            \"status\": \"A\",\r\n            \"code\": \"PPTD00013\",\r\n            \"name\": \"TESORERÍA l Consignación bancaria\",\r\n            \"consecutive\": 0,\r\n            \"accountingDocument\": {\r\n                \"id\": 6,\r\n                \"idCampus\": 0,\r\n                \"code\": \"006\",\r\n                \"name\": \"CONSIGNACIÓN BANCARIA\",\r\n                \"description\": \"Información ingresada por base de datos\",\r\n                \"process\": \"TESORERIA\",\r\n                \"functionality\": \"LIQUIDAR\",\r\n                \"status\": \"A\"\r\n            },\r\n            \"locked\": {\r\n                \"date\": null,\r\n                \"yesOrNot\": \"N\",\r\n                \"message\": null\r\n            }\r\n        },\r\n        \"processByDocumentTypePayment\": {\r\n            \"id\": 13,\r\n            \"idCampus\": 0,\r\n            \"status\": \"A\",\r\n            \"code\": \"PPTD00013\",\r\n            \"name\": \"TESORERÍA l Consignación bancaria\",\r\n            \"consecutive\": 0,\r\n            \"accountingDocument\": {\r\n                \"id\": 6,\r\n                \"idCampus\": 0,\r\n                \"code\": \"006\",\r\n                \"name\": \"CONSIGNACIÓN BANCARIA\",\r\n                \"description\": \"Información ingresada por base de datos\",\r\n                \"process\": \"TESORERIA\",\r\n                \"functionality\": \"LIQUIDAR\",\r\n                \"status\": \"A\"\r\n            },\r\n            \"locked\": {\r\n                \"date\": null,\r\n                \"yesOrNot\": \"N\",\r\n                \"message\": null\r\n            }\r\n        },\r\n        \"processByDocumentTypeTransfer\": {\r\n            \"id\": 21,\r\n            \"idCampus\": 0,\r\n            \"status\": \"A\",\r\n            \"code\": \"PPTD00021\",\r\n            \"name\": \"TESORERÍA l Transferencias bancarias\",\r\n            \"consecutive\": 0,\r\n            \"accountingDocument\": {\r\n                \"id\": 20,\r\n                \"idCampus\": 0,\r\n                \"code\": \"020\",\r\n                \"name\": \"TRANSFERENCIAS BANCARIAS\",\r\n                \"description\": \"Información ingresada por base de datos\",\r\n                \"process\": \"TESORERIA\",\r\n                \"functionality\": \"LIQUIDAR\",\r\n                \"status\": \"A\"\r\n            },\r\n            \"locked\": {\r\n                \"date\": null,\r\n                \"yesOrNot\": \"N\",\r\n                \"message\": null\r\n            }\r\n        },\r\n        \"applyBankNote\": \"S\"\r\n    }",
													"options": {
														"raw": {
															"language": "json"
														}
													}
												},
												"url": {
													"raw": "{{ruta}}/bank",
													"host": [
														"{{ruta}}"
													],
													"path": [
														"bank"
													]
												}
											},
											"response": []
										}
									]
								},
								{
									"name": "Base",
									"item": [
										{
											"name": "Obtener Base",
											"request": {
												"method": "GET",
												"header": [],
												"url": {
													"raw": "{{ruta}}/base",
													"host": [
														"{{ruta}}"
													],
													"path": [
														"base"
													]
												}
											},
											"response": []
										},
										{
											"name": "Guardar Base",
											"request": {
												"method": "POST",
												"header": [],
												"body": {
													"mode": "raw",
													"raw": "    {\r\n        \"id\": 12,\r\n        \"code\": \"BE00000201\",\r\n        \"name\": \"Base nieta inactiva asociada a un padre activo\",\r\n        \"fatherBase\": {\r\n            \"id\": 8,\r\n            \"code\": \"BE00000010\",\r\n            \"name\": \"Base hija activa asociada a un padre activo\",\r\n            \"fatherBase\": {\r\n                \"id\": 1,\r\n                \"code\": \"BE00000001\",\r\n                \"name\": \"Base padre activa con asociaciones\",\r\n                \"fatherBase\": null,\r\n                \"idCampus\": 1,\r\n                \"status\": \"A\",\r\n                \"locked\": {\r\n                    \"date\": null,\r\n                    \"yesOrNot\": \"N\",\r\n                    \"message\": null\r\n                },\r\n                \"externalReference\": \"TEST000001\",\r\n                \"isFather\": false\r\n            },\r\n            \"idCampus\": 1,\r\n            \"status\": \"A\",\r\n            \"locked\": {\r\n                \"date\": null,\r\n                \"yesOrNot\": \"N\",\r\n                \"message\": null\r\n            },\r\n            \"externalReference\": \"TEST000010\",\r\n            \"isFather\": false\r\n        },\r\n        \"idCampus\": 1,\r\n        \"status\": \"I\",\r\n        \"locked\": {\r\n            \"date\": null,\r\n            \"yesOrNot\": \"N\",\r\n            \"message\": null\r\n        },\r\n        \"externalReference\": \"TEST000101\",\r\n        \"isFather\": false\r\n    }",
													"options": {
														"raw": {
															"language": "json"
														}
													}
												},
												"url": {
													"raw": "{{ruta}}/base",
													"host": [
														"{{ruta}}"
													],
													"path": [
														"base"
													]
												}
											},
											"response": []
										},
										{
											"name": "Actualizar Base",
											"request": {
												"method": "PUT",
												"header": [
													{
														"key": "Accept-Language",
														"value": "{{lang}}",
														"type": "text",
														"disabled": true
													}
												],
												"body": {
													"mode": "raw",
													"raw": "    {\r\n        \"id\": 1,\r\n        \"code\": \"BE00000002\",\r\n        \"name\": \"Base padre activa con asociaciones\",\r\n        \"fatherBase\": null,\r\n        \"idCampus\": 1,\r\n        \"status\": \"A\",\r\n        \"locked\": {\r\n            \"date\": 1613065926000,\r\n            \"yesOrNot\": \"S\",\r\n            \"message\": \"bloqueo de regitro inactivo\"\r\n        },\r\n        \"externalReference\": \"TEST000001\",\r\n        \"isFather\": true\r\n    }",
													"options": {
														"raw": {
															"language": "json"
														}
													}
												},
												"url": {
													"raw": "{{ruta}}/base",
													"host": [
														"{{ruta}}"
													],
													"path": [
														"base"
													]
												}
											},
											"response": []
										},
										{
											"name": "Eliminar Base",
											"request": {
												"method": "DELETE",
												"header": [
													{
														"key": "Accept-Language",
														"value": "{{lang}}",
														"type": "text"
													}
												],
												"url": {
													"raw": "{{ruta}}/base/10",
													"host": [
														"{{ruta}}"
													],
													"path": [
														"base",
														"10"
													]
												}
											},
											"response": []
										}
									]
								},
								{
									"name": "Centro de costo",
									"item": [
										{
											"name": "Obtener Centro de Costo",
											"request": {
												"method": "GET",
												"header": [],
												"url": {
													"raw": "{{ruta}}/costCenter",
													"host": [
														"{{ruta}}"
													],
													"path": [
														"costCenter"
													]
												}
											},
											"response": []
										},
										{
											"name": "Guardar Centro de Costo",
											"request": {
												"method": "POST",
												"header": [],
												"body": {
													"mode": "raw",
													"raw": "    {\r\n        \"id\": 21,\r\n        \"idCampus\": 1,\r\n        \"code\": \"test\",\r\n        \"name\": \"test\",\r\n        \"fatherCostCenter\": null,\r\n        \"status\": \"A\",\r\n        \"locked\": {\r\n            \"date\": 1612966899000,\r\n            \"yesOrNot\": \"S\",\r\n            \"message\": \"bloqueo de eliminación\"\r\n        },\r\n        \"externalReference\": null,\r\n        \"isFather\": false\r\n    }",
													"options": {
														"raw": {
															"language": "json"
														}
													}
												},
												"url": {
													"raw": "{{ruta}}/costCenter",
													"host": [
														"{{ruta}}"
													],
													"path": [
														"costCenter"
													]
												}
											},
											"response": []
										},
										{
											"name": "Actualizar Centro de Costo",
											"request": {
												"method": "PUT",
												"header": [],
												"body": {
													"mode": "raw",
													"raw": "    {\r\n        \"id\": 21,\r\n        \"idCampus\": 1,\r\n        \"code\": \"test\",\r\n        \"name\": \"test\",\r\n        \"fatherCostCenter\": null,\r\n        \"status\": \"A\",\r\n        \"locked\": {\r\n            \"date\": 1612966899000,\r\n            \"yesOrNot\": \"S\",\r\n            \"message\": \"bloqueo de eliminación\"\r\n        },\r\n        \"externalReference\": null,\r\n        \"isFather\": false\r\n    }",
													"options": {
														"raw": {
															"language": "json"
														}
													}
												},
												"url": {
													"raw": "{{ruta}}/costCenter",
													"host": [
														"{{ruta}}"
													],
													"path": [
														"costCenter"
													]
												}
											},
											"response": []
										},
										{
											"name": "Eliminar Centro de Costo",
											"request": {
												"method": "DELETE",
												"header": [],
												"url": {
													"raw": "{{ruta}}/costCenter/21",
													"host": [
														"{{ruta}}"
													],
													"path": [
														"costCenter",
														"21"
													]
												}
											},
											"response": []
										}
									]
								},
								{
									"name": "Conceptos de facturación",
									"item": []
								},
								{
									"name": "Cuentas contables",
									"item": [
										{
											"name": "Obtener Cuentas Contables",
											"request": {
												"method": "GET",
												"header": [],
												"url": {
													"raw": "{{ruta}}/account",
													"host": [
														"{{ruta}}"
													],
													"path": [
														"account"
													]
												}
											},
											"response": []
										},
										{
											"name": "Guardar Cuentas Contables",
											"request": {
												"method": "POST",
												"header": [],
												"body": {
													"mode": "raw",
													"raw": "    {\r\n        \"id\": 106,\r\n        \"code\": \"CC00000102\",\r\n        \"name\": \"Cuenta contable nieta bloqueada\",\r\n        \"accountType\": \"P\",\r\n        \"fatherAccount\": {\r\n            \"id\": 101,\r\n            \"code\": \"CC00000010\",\r\n            \"name\": \"Cuenta contable hija activa\",\r\n            \"accountType\": \"P\",\r\n            \"fatherAccount\": {\r\n                \"id\": 100,\r\n                \"code\": \"CC00000001\",\r\n                \"name\": \"Cuenta contable padre\",\r\n                \"accountType\": \"P\",\r\n                \"fatherAccount\": null,\r\n                \"idCampus\": 1,\r\n                \"attributeManagement\": {\r\n                    \"id\": 10,\r\n                    \"idCampus\": 1,\r\n                    \"code\": \"010\",\r\n                    \"name\": \"Todos\",\r\n                    \"description\": null,\r\n                    \"third\": \"S\",\r\n                    \"base\": \"S\",\r\n                    \"costCenter\": \"S\",\r\n                    \"source\": \"S\",\r\n                    \"status\": \"A\",\r\n                    \"locked\": null\r\n                },\r\n                \"status\": \"A\",\r\n                \"locked\": {\r\n                    \"date\": null,\r\n                    \"yesOrNot\": \"N\",\r\n                    \"message\": null\r\n                },\r\n                \"externalReference\": \"TEST000001\"\r\n            },\r\n            \"idCampus\": 1,\r\n            \"attributeManagement\": {\r\n                \"id\": 10,\r\n                \"idCampus\": 1,\r\n                \"code\": \"010\",\r\n                \"name\": \"Todos\",\r\n                \"description\": null,\r\n                \"third\": \"S\",\r\n                \"base\": \"S\",\r\n                \"costCenter\": \"S\",\r\n                \"source\": \"S\",\r\n                \"status\": \"A\",\r\n                \"locked\": null\r\n            },\r\n            \"status\": \"A\",\r\n            \"locked\": {\r\n                \"date\": null,\r\n                \"yesOrNot\": \"N\",\r\n                \"message\": null\r\n            },\r\n            \"externalReference\": \"TEST000010\"\r\n        },\r\n        \"idCampus\": 1,\r\n        \"attributeManagement\": {\r\n            \"id\": 10,\r\n            \"idCampus\": 1,\r\n            \"code\": \"010\",\r\n            \"name\": \"Todos\",\r\n            \"description\": null,\r\n            \"third\": \"S\",\r\n            \"base\": \"S\",\r\n            \"costCenter\": \"S\",\r\n            \"source\": \"S\",\r\n            \"status\": \"A\",\r\n            \"locked\": null\r\n        },\r\n        \"status\": \"A\",\r\n        \"locked\": {\r\n            \"date\": null,\r\n            \"yesOrNot\": \"N\",\r\n            \"message\": null\r\n        },\r\n        \"externalReference\": \"TEST000102\"\r\n    }",
													"options": {
														"raw": {
															"language": "json"
														}
													}
												},
												"url": {
													"raw": "{{ruta}}/account",
													"host": [
														"{{ruta}}"
													],
													"path": [
														"account"
													]
												}
											},
											"response": []
										},
										{
											"name": "Actualizar Cuentas Contables Copy",
											"request": {
												"method": "PUT",
												"header": [],
												"body": {
													"mode": "raw",
													"raw": "    {\r\n        \"id\": 106,\r\n        \"code\": \"CC00000102\",\r\n        \"name\": \"Cuenta contable nieta bloqueada\",\r\n        \"accountType\": \"P\",\r\n        \"fatherAccount\": {\r\n            \"id\": 101,\r\n            \"code\": \"CC00000010\",\r\n            \"name\": \"Cuenta contable hija activa\",\r\n            \"accountType\": \"P\",\r\n            \"fatherAccount\": {\r\n                \"id\": 100,\r\n                \"code\": \"CC00000001\",\r\n                \"name\": \"Cuenta contable padre\",\r\n                \"accountType\": \"P\",\r\n                \"fatherAccount\": null,\r\n                \"idCampus\": 1,\r\n                \"attributeManagement\": {\r\n                    \"id\": 10,\r\n                    \"idCampus\": 1,\r\n                    \"code\": \"010\",\r\n                    \"name\": \"Todos\",\r\n                    \"description\": null,\r\n                    \"third\": \"S\",\r\n                    \"base\": \"S\",\r\n                    \"costCenter\": \"S\",\r\n                    \"source\": \"S\",\r\n                    \"status\": \"A\",\r\n                    \"locked\": null\r\n                },\r\n                \"status\": \"A\",\r\n                \"locked\": {\r\n                    \"date\": null,\r\n                    \"yesOrNot\": \"N\",\r\n                    \"message\": null\r\n                },\r\n                \"externalReference\": \"TEST000001\"\r\n            },\r\n            \"idCampus\": 1,\r\n            \"attributeManagement\": {\r\n                \"id\": 10,\r\n                \"idCampus\": 1,\r\n                \"code\": \"010\",\r\n                \"name\": \"Todos\",\r\n                \"description\": null,\r\n                \"third\": \"S\",\r\n                \"base\": \"S\",\r\n                \"costCenter\": \"S\",\r\n                \"source\": \"S\",\r\n                \"status\": \"A\",\r\n                \"locked\": null\r\n            },\r\n            \"status\": \"A\",\r\n            \"locked\": {\r\n                \"date\": null,\r\n                \"yesOrNot\": \"N\",\r\n                \"message\": null\r\n            },\r\n            \"externalReference\": \"TEST000010\"\r\n        },\r\n        \"idCampus\": 1,\r\n        \"attributeManagement\": {\r\n            \"id\": 10,\r\n            \"idCampus\": 1,\r\n            \"code\": \"010\",\r\n            \"name\": \"Todos\",\r\n            \"description\": null,\r\n            \"third\": \"S\",\r\n            \"base\": \"S\",\r\n            \"costCenter\": \"S\",\r\n            \"source\": \"S\",\r\n            \"status\": \"A\",\r\n            \"locked\": null\r\n        },\r\n        \"status\": \"A\",\r\n        \"locked\": {\r\n            \"date\": 1612966045000,\r\n            \"yesOrNot\": \"S\",\r\n            \"message\": \"bloqueo de pruebas\"\r\n        },\r\n        \"externalReference\": \"TEST000102\"\r\n    }",
													"options": {
														"raw": {
															"language": "json"
														}
													}
												},
												"url": {
													"raw": "{{ruta}}/account",
													"host": [
														"{{ruta}}"
													],
													"path": [
														"account"
													]
												}
											},
											"response": []
										},
										{
											"name": "Obtener Cuentas Contables Copy",
											"request": {
												"method": "DELETE",
												"header": [],
												"url": {
													"raw": "{{ruta}}/account/107",
													"host": [
														"{{ruta}}"
													],
													"path": [
														"account",
														"107"
													]
												}
											},
											"response": []
										}
									]
								},
								{
									"name": "Gestión de atributos",
									"item": []
								},
								{
									"name": "Orígenes y aplicaciones",
									"item": [
										{
											"name": "Obtener Orígenes y Aplicaciones",
											"request": {
												"method": "GET",
												"header": [],
												"url": {
													"raw": "{{ruta}}/source",
													"host": [
														"{{ruta}}"
													],
													"path": [
														"source"
													]
												}
											},
											"response": []
										},
										{
											"name": "Guardar Orígenes y Aplicaciones",
											"request": {
												"method": "POST",
												"header": [],
												"body": {
													"mode": "raw",
													"raw": "    {\r\n        \"id\": 2,\r\n        \"code\": \"OA00000010\",\r\n        \"name\": \"OA hijo activo asociado a un padre activo\",\r\n        \"fatherSource\": {\r\n            \"id\": 1,\r\n            \"code\": \"OA00000001\",\r\n            \"name\": \"OA padre activo con asociaciones\",\r\n            \"fatherSource\": null,\r\n            \"idCampus\": 1,\r\n            \"status\": \"A\",\r\n            \"locked\": {\r\n                \"date\": null,\r\n                \"yesOrNot\": \"N\",\r\n                \"message\": null\r\n            },\r\n            \"externalReference\": \"TEST000001\",\r\n            \"isFather\": false\r\n        },\r\n        \"idCampus\": 1,\r\n        \"status\": \"A\",\r\n        \"locked\": {\r\n            \"date\": null,\r\n            \"yesOrNot\": \"N\",\r\n            \"message\": null\r\n        },\r\n        \"externalReference\": \"TEST000110\",\r\n        \"isFather\": true\r\n    }",
													"options": {
														"raw": {
															"language": "json"
														}
													}
												},
												"url": {
													"raw": "{{ruta}}/source",
													"host": [
														"{{ruta}}"
													],
													"path": [
														"source"
													]
												}
											},
											"response": []
										},
										{
											"name": "Actualizar Orígenes y Aplicaciones",
											"request": {
												"method": "PUT",
												"header": [],
												"body": {
													"mode": "raw",
													"raw": "    {\r\n        \"id\": 1,\r\n        \"code\": \"OA00000001\",\r\n        \"name\": \"OA padre activo con asociaciones\",\r\n        \"fatherSource\": null,\r\n        \"idCampus\": 1,\r\n        \"status\": \"A\",\r\n        \"locked\": {\r\n            \"date\": null,\r\n            \"yesOrNot\": \"N\",\r\n            \"message\": null\r\n        },\r\n        \"externalReference\": \"TEST000001\",\r\n        \"isFather\": true\r\n    }",
													"options": {
														"raw": {
															"language": "json"
														}
													}
												},
												"url": {
													"raw": "{{ruta}}/source",
													"host": [
														"{{ruta}}"
													],
													"path": [
														"source"
													]
												}
											},
											"response": []
										}
									]
								},
								{
									"name": "Listas de precios",
									"item": []
								},
								{
									"name": "Categorías de tarifas",
									"item": []
								},
								{
									"name": "Variaciones de precios",
									"item": []
								}
							]
						},
						{
							"name": "Cruce bancario",
							"item": [
								{
									"name": "Archivo asobancario",
									"item": []
								},
								{
									"name": "Configuración asobancaria",
									"item": []
								}
							]
						},
						{
							"name": "Formas de pago",
							"item": []
						},
						{
							"name": "Gestión de terceros",
							"item": [
								{
									"name": "Emisores",
									"item": []
								},
								{
									"name": "Tercero financiero",
									"item": []
								},
								{
									"name": "Perfiles financieros",
									"item": []
								}
							]
						},
						{
							"name": "Liquidaciones",
							"item": [
								{
									"name": "Historial de liquidaciones",
									"item": [
										{
											"name": "Obtener Liquidaciones Por Número",
											"request": {
												"method": "GET",
												"header": [],
												"url": {
													"raw": "{{ruta}}/settlement/findSettlementByNumber/0000000163",
													"host": [
														"{{ruta}}"
													],
													"path": [
														"settlement",
														"findSettlementByNumber",
														"0000000163"
													]
												}
											},
											"response": []
										}
									]
								},
								{
									"name": "Liquidaciones",
									"item": [
										{
											"name": "Obtener Detalle de Liquidaciones",
											"request": {
												"method": "GET",
												"header": [],
												"url": {
													"raw": "{{ruta}}/settlement/164/details",
													"host": [
														"{{ruta}}"
													],
													"path": [
														"settlement",
														"164",
														"details"
													]
												}
											},
											"response": []
										}
									]
								},
								{
									"name": "Plantilla de liquidación",
									"item": [
										{
											"name": "Obtener Plantilla de liquidación",
											"request": {
												"method": "GET",
												"header": [],
												"url": {
													"raw": "{{ruta}}/template",
													"host": [
														"{{ruta}}"
													],
													"path": [
														"template"
													]
												}
											},
											"response": []
										},
										{
											"name": "Guardar Plantilla de liquidación",
											"request": {
												"method": "POST",
												"header": [],
												"body": {
													"mode": "raw",
													"raw": "{\r\n    \"id\": 6,\r\n    \"code\": \"PL00000007\",\r\n    \"name\": \"Plantilla Inmovilizada prueba\",\r\n    \"idCampus\": 0,\r\n    \"status\": \"A\",\r\n    \"templateType\": \"M\",\r\n    \"accountingTransaction\": \"R\",\r\n    \"isImmobilized\": \"S\",\r\n    \"externalReference\": \"\",\r\n    \"creationDate\": \"02/11/2021\",\r\n    \"createdBy\": \"diana\"\r\n}",
													"options": {
														"raw": {
															"language": "json"
														}
													}
												},
												"url": {
													"raw": "{{ruta}}/template",
													"host": [
														"{{ruta}}"
													],
													"path": [
														"template"
													]
												}
											},
											"response": []
										},
										{
											"name": "Guardar Plantilla de liquidación Copy",
											"request": {
												"method": "PUT",
												"header": [
													{
														"key": "Accept-Language",
														"value": "{{lang}}",
														"type": "text"
													}
												],
												"body": {
													"mode": "raw",
													"raw": "    {\r\n        \"id\": 6,\r\n        \"code\": \"PL00000007\",\r\n        \"name\": \"Plantilla Inmovilizada prueba\",\r\n        \"idCampus\": 0,\r\n        \"status\": \"A\",\r\n        \"templateType\": \"M\",\r\n        \"accountingTransaction\": \"R\",\r\n        \"isImmobilized\": \"S\",\r\n        \"externalReference\": \"\",\r\n        \"creationDate\": \"02/11/2021\",\r\n        \"createdBy\": \"diana\"\r\n    }",
													"options": {
														"raw": {
															"language": "json"
														}
													}
												},
												"url": {
													"raw": "{{ruta}}/template",
													"host": [
														"{{ruta}}"
													],
													"path": [
														"template"
													]
												}
											},
											"response": []
										},
										{
											"name": "Eliminar Plantilla de liquidación",
											"request": {
												"method": "DELETE",
												"header": [
													{
														"key": "Accept-Language",
														"value": "{{lang}}",
														"type": "text"
													}
												],
												"url": {
													"raw": "{{ruta}}/template/6",
													"host": [
														"{{ruta}}"
													],
													"path": [
														"template",
														"6"
													]
												}
											},
											"response": []
										}
									]
								},
								{
									"name": "Modificación de liquidación",
									"item": []
								}
							]
						},
						{
							"name": "Tipo de documento",
							"item": [
								{
									"name": "Proceso por tipo de documento",
									"item": []
								}
							]
						}
					]
				}
			]
		},
		{
			"name": "MÓDULO TRIBUTARIO",
			"item": [
				{
					"name": "Impuestos",
					"item": [
						{
							"name": "Impuestos",
							"item": []
						},
						{
							"name": "Categoría de impuestos",
							"item": []
						}
					]
				}
			]
		},
		{
			"name": "MÓDULO REPORTES",
			"item": [
				{
					"name": "Reportes",
					"item": [
						{
							"name": "Arqueo y cierre de caja",
							"item": []
						},
						{
							"name": "Apertura de caja",
							"item": []
						}
					]
				}
			]
		},
		{
			"name": "/financial/profiles/id-list",
			"request": {
				"method": "GET",
				"header": [
					{
						"key": "accept",
						"value": "*/*"
					}
				],
				"url": {
					"raw": "{{ruta}}/financial/profiles/id-list?profileIds=1&profileIds=2",
					"host": [
						"{{ruta}}"
					],
					"path": [
						"financial",
						"profiles",
						"id-list"
					],
					"query": [
						{
							"key": "profileIds",
							"value": "1"
						},
						{
							"key": "profileIds",
							"value": "2"
						}
					]
				}
			},
			"response": []
		}
	],
	"auth": {
		"type": "oauth2",
		"oauth2": [
			{
				"key": "addTokenTo",
				"value": "header",
				"type": "string"
			}
		]
	},
	"event": [
		{
			"listen": "prerequest",
			"script": {
				"type": "text/javascript",
				"exec": [
					"const options = {",
					"    url: \"https://nwawakanda-dot-academico-qa.appspot.com/Usuario/v2/authenticate\",",
					"    method: 'POST',",
					"    header: { 'content-type': 'application/json' },",
					"    body: {",
					"        mode: 'raw',",
					"        raw: JSON.stringify({",
					"            \"password\": \"admin\",",
					"            \"username\": \"admin\"",
					"        })",
					"",
					"    }",
					"};",
					"",
					"pm.sendRequest(options, function (err, res) {",
					"    var jsonData = res.json();",
					"    if (err) {",
					"        console.log(err);",
					"    }",
					"    else {",
					"        postman.setEnvironmentVariable(\"token\", jsonData.token);",
					"    }",
					"});"
				]
			}
		},
		{
			"listen": "test",
			"script": {
				"type": "text/javascript",
				"exec": [
					"pm.test(\"Status code is 200, 201 or 204\", function () {",
					"    pm.expect(pm.response.code).to.be.oneOf([200, 201, 204]);",
					"});"
				]
			}
		}
	],
	"variable": [
		{
			"key": "ruta",
			"value": "https://finance-dot-academico-qa.appspot.com"
		},
		{
			"key": "lang",
			"value": "en"
		}
	]
}